## Interface: 90005
## Title: Shadowed UF (Options)
## Notes: Configuration for Shadowed Unit Frames.
## Author: Shadowed
## LoadOnDemand: true
## Dependencies: ShadowedUnitFrames

libs\AceDBOptions-3.0\AceDBOptions-3.0.xml
libs\AceGUI-3.0\AceGUI-3.0.xml
libs\AceGUI-3.0-SharedMediaWidgets\widget.xml
libs\AceConfig-3.0\AceConfig-3.0.xml

config.lua
