## Interface: 90001
## Title: Angry Assignments
## Author: Ermad
## Version: v1.14.2
## SavedVariables: AngryAssign_Pages,AngryAssign_Categories,AngryAssign_State,AngryAssign_Config
## OptionalDeps: Ace3, AceGUI-3.0-SharedMediaWidgets, LibCompress, LibWindow-1.1

embeds.xml

Core.lua
