## Interface: 90005

## Title: AdiBags Configuration
## Notes: Adirelle's bag addon.
## Author: Adirelle
## Version: v1.9.23
## X-Date: 2021-03-13T22:28:46Z
## X-Part-Of: AdiBags
## LoadOnDemand: 1
## Dependencies: AdiBags
## OptionalDeps: AceGUI-3.0-SharedMediaWidgets

#@no-lib-strip@
..\AdiBags\libs\AceDBOptions-3.0\AceDBOptions-3.0.xml
..\AdiBags\libs\AceGUI-3.0\AceGUI-3.0.xml
..\AdiBags\libs\AceConfig-3.0\AceConfig-3.0.xml
..\AdiBags\libs\AceGUI-3.0-SharedMediaWidgets\widget.xml
#@end-no-lib-strip@

..\AdiBags\config\Config-ItemList.lua
..\AdiBags\config\Options.lua

#@debug@
# ## Version: DEV
#@end-debug@
