## Title: Quartz
## Interface: 90005
## Notes: Modular casting bar.
## Author: Nevcairiel, Nymbia
## Version: 3.6.4
## X-License: GPL v2
## X-Credits: Ammo (some code based on PitBull_CastBar), kergoth (Tradeskill Merge module idea), Roartindon (Lag Embed mode for Latency module)
## X-Curse-Project-ID: 4558
## X-WoWI-ID: 7158

## Title-ruRU: Кварц
## Notes-ruRU: Модульная полоса применений.
## Notes-frFR: Barres d'incantation modulaires.
## Notes-zhCN: 模块化施法条。
## Notes-zhTW: 模組化施法條。

## SavedVariables: Quartz3DB
## OptionalDeps: Ace3, LibDualSpec-1.0, LibWindow-1.1, LibSharedMedia-3.0, AceGUI-3.0-SharedMediaWidgets, SharedMedia

libs\LibStub\LibStub.lua
libs\CallbackHandler-1.0\CallbackHandler-1.0.xml
libs\AceAddon-3.0\AceAddon-3.0.xml
libs\AceGUI-3.0\AceGUI-3.0.xml
libs\AceConfig-3.0\AceConfig-3.0.xml
libs\AceConsole-3.0\AceConsole-3.0.xml
libs\AceDB-3.0\AceDB-3.0.xml
libs\AceDBOptions-3.0\AceDBOptions-3.0.xml
libs\AceEvent-3.0\AceEvent-3.0.xml
libs\AceTimer-3.0\AceTimer-3.0.xml
libs\AceBucket-3.0\AceBucket-3.0.xml
libs\AceLocale-3.0\AceLocale-3.0.xml
libs\AceHook-3.0\AceHook-3.0.xml

libs\LibSharedMedia-3.0\lib.xml
libs\AceGUI-3.0-SharedMediaWidgets\widget.xml
libs\LibDualSpec-1.0\LibDualSpec-1.0.lua
libs\LibWindow-1.1\LibWindow-1.1.lua

locale\locale.xml

Quartz.lua
Config.lua

QuartzStatusBar.lua

CastBarTemplate.lua

modules\Player.lua
modules\Target.lua
modules\Focus.lua
modules\Pet.lua
modules\Latency.lua
modules\Tradeskill.lua
modules\GCD.lua
modules\Buff.lua
modules\Mirror.lua
modules\Timer.lua
modules\Swing.lua
modules\Interrupt.lua
modules\Range.lua
modules\Flight.lua
modules\EnemyCasts.lua
