VER 3 0100000000000001 "CD" "INV_MISC_QUESTIONMARK"
/cast Incarnation: Tree of Life(Talent, Shapeshift)
/use Primal Combatant's Badge of Dominance
END
VER 3 0100000000000002 "VuhDoDCShieldData" "Ability_Repair"
P[x][x][x][x][x][x][x][x][x][x][x][x][x][x][x][x][x][x][x][x][x][x][x][x][x][x][x][x][x][x][x][x][x][x][x][x][x][x][x][x]1DH[x][x][x][x][x][x][x][x][x][x][x][x][x][x][x][x][x][x][x][x][x][x][x][x][x][x][x][x][x][x][x][x][x][x][x][x][x][x][x][x][x]
END
VER 3 0100000000000003 "VuhDoDCShieldNames" "Ability_Repair"
N[x][x][x][x][x][x][x][x][x][x][x][x][x][x][x][x][x][x][x][x][x][x][x][x][x][x][x][x][x][x][x][x][x][x][x][x][x][x][x][x]Tho[x][x][x][x][x][x][x][x][x][x][x][x][x][x][x][x][x][x][x][x][x][x][x][x][x][x][x][x][x][x][x][x][x][x][x][x][x][x][x][x][x]
END
