## Interface: 90002
## Title: |cff00ff00TradeSkillMaster_AppHelper|r
## Notes: Acts as a connection between the TSM addon and app.
## Author: TSM Team
## Version: v4.0.11
## SavedVariables: TradeSkillMaster_AppHelperDB
## Dependency: TradeSkillMaster

TradeSkillMaster_AppHelper.lua
AppData.lua
