## Author: Crieve-Sargeras
## Interface: 90005
## X-Curse-Project-ID: 267285
## Title: AllTheThings |TInterface\Addons\AllTheThings\assets\logo_32x32:0|t
## Name: AllTheThings
## SavedVariables: AllTheThingsSettings, AllTheThingsAD, AllTheThingsAuctionConfig, AllTheThingsAuctionData, AllTheThingsDebugData, AllTheThingsHarvestItems
## SavedVariablesPerCharacter: AllTheThingsSettingsPerCharacter
## Notes: Addon for Tracking Collections & Account Completion
## Version: Shadowlands-2.2.9
lib\LibStub\LibStub.lua
lib\CallbackHandler-1.0\CallbackHandler-1.0.lua
lib\LibDataBroker-1.1\LibDataBroker-1.1.lua
src\base.lua
locales\enUS.lua
locales\esES.lua
locales\esMX.lua
locales\deDE.lua
locales\frFR.lua
locales\itIT.lua
locales\koKR.lua
locales\ptBR.lua
locales\ruRU.lua
locales\zhCN.lua
db\Presets.lua
Settings.lua
AllTheThings.lua
db\FlightPathDB.lua
db\RaceDB.lua
db\Categories.lua
