## Interface: 11304
## Title: Titan Panel Classic [|cffeda55fPerformance|r] |cff00aa001.2.2.11304|r
## Notes: Adds FPS and Garbage collection information to Titan Panel
## Author: Titan Panel Development Team (http://www.titanpanel.org)
## SavedVariables: 
## OptionalDeps: 
## Dependencies: TitanClassic
## Version: 1.2.2.11304
## X-Child-Of: TitanClassic
TitanClassicPerformance.xml
