## Interface: 90002
## Title: TransmogRoulette
## Notes: Enhances the transmog UI with randomization buttons
## Author: Semlar
## Version: 9.0.2.0

## LoadOnDemand: 1
## LoadWith: Blizzard_Collections

TransmogRoulette.xml
