## Interface: 90001
## Title: |c00ffff00WorthIt|r
## Author: DALAGG
## Version: v3.1.2
## DefaultState: enabled
## SavedVariables: WITDB
## Dependencies: TradeSkillMaster
## OptionalDeps: Routes, TomTom, Scrap

Libs\Libs.xml

Locale\Locale.xml
Enums\Enums.xml
Data\Data.xml
Utilities\Utilities.xml
Core.lua
Config\Config.lua
Modules\Modules.xml
UI\UI.xml
Console.lua
