VER 3 0100000000000001 "VuhDoDCShieldData" "Ability_Repair"
R1NT1EM1NM1OM1RM2HR[x]2OM2RM2NM[x][x][x][x][x][x][x][x][x][x][x][x][x][x][x][x][x][x][x][x][x][x][x][x][x][x][x][x][x][x]2PH[x][x][x][x][x][x][x][x][x][x][x][x][x][x][x][x][x][x][x][x][x][x][x][x][x][x][x][x][x][x][x][x][x][x][x][x][x][x][x][x][x]
END
VER 3 0100000000000002 "VuhDoDCShieldNames" "Ability_Repair"
NIckPapWarTilJavHra[x]JenDraFei[x][x][x][x][x][x][x][x][x][x][x][x][x][x][x][x][x][x][x][x][x][x][x][x][x][x][x][x][x][x]Odi[x][x][x][x][x][x][x][x][x][x][x][x][x][x][x][x][x][x][x][x][x][x][x][x][x][x][x][x][x][x][x][x][x][x][x][x][x][x][x][x][x]
END
