## Interface: 80000
## LoadOnDemand: 1
## Title: Lib: Sink-2.0
## Notes: Library that handles chat output.
## Notes-zhCN: 处理聊天输出的库文件。
## Notes-zhTW: 處理頻道輸出的函數庫。
## Author: Funkydude
## OptionalDeps: LibStub
## X-Category: Library
## X-Credits: Rabbit
## X-License: CC-BY-NC-SA 3.0

embeds.xml
LibSink-2.0\lib.xml

