## Interface: 90005
## Title: Details_ChartViewer (plugin)
## Notes: Plugin for Details
## RequiredDeps: Details
## OptionalDeps: Ace3

#@no-lib-strip@
embeds.xml
#@end-no-lib-strip@

locales\enUS.lua
locales\deDE.lua
locales\esES.lua
locales\esMX.lua
locales\frFR.lua
locales\itIT.lua
locales\koKR.lua
locales\ptBR.lua
locales\ruRU.lua
locales\zhCN.lua
locales\zhTW.lua

Details_ChartViewer.xml
Details_ChartViewer.lua
