## Interface: 90005
## Title: OmniCC Config
## Notes: OmniCC's configuration menu
## Notes-koKR: OmniCC의 설정 메뉴
## Author: Tuller
## Dependencies: OmniCC
## LoadOnDemand: 1
embeds.xml
localization\localization.xml
preview.lua
themes.lua
rules.lua
options.lua