Version: 1
Frame: XPerl_AggroAnchor
FrameLevel: 1
Anchor: TOP
X: 86
Y: -179
W: 32
H: 32
Frame: XPerl_Assists_FrameAnchor
FrameLevel: 1
Anchor: CENTER
X: -15
Y: -7
W: 330
H: 124
Frame: XPerl_MTList_Anchor
FrameLevel: 1
Anchor: CENTER
X: -15
Y: 28
W: 206
H: 11
Frame: XPerl_Raid_Title12
FrameLevel: 1
Anchor: CENTER
X: -183
Y: -218
W: 80
H: 10
Frame: XPerl_Raid_Title11
FrameLevel: 1
Anchor: CENTER
X: -183
Y: -218
W: 80
H: 10
Frame: XPerl_Raid_Title10
FrameLevel: 1
Anchor: CENTER
X: -183
Y: -218
W: 80
H: 10
Frame: XPerl_Raid_Title9
FrameLevel: 1
Anchor: CENTER
X: -183
Y: -218
W: 80
H: 10
Frame: XPerl_Raid_Title8
FrameLevel: 1
Anchor: CENTER
X: -183
Y: -218
W: 80
H: 10
Frame: XPerl_Raid_Title7
FrameLevel: 1
Anchor: CENTER
X: -183
Y: -218
W: 80
H: 10
Frame: XPerl_Raid_Title6
FrameLevel: 1
Anchor: CENTER
X: -183
Y: -188
W: 80
H: 10
Frame: XPerl_Raid_Title5
FrameLevel: 1
Anchor: CENTER
X: -183
Y: -218
W: 80
H: 10
Frame: XPerl_Raid_Title4
FrameLevel: 1
Anchor: CENTER
X: -183
Y: -218
W: 80
H: 10
Frame: XPerl_Raid_Title3
FrameLevel: 1
Anchor: CENTER
X: -183
Y: -218
W: 80
H: 10
Frame: XPerl_Raid_Title2
FrameLevel: 1
Anchor: CENTER
X: -183
Y: -218
W: 80
H: 10
Frame: XPerl_Raid_Title1
FrameLevel: 1
Anchor: CENTER
X: -183
Y: -218
W: 80
H: 10
Frame: XPerl_RosterTextAnchor
FrameLevel: 1
Anchor: CENTER
X: -15
Y: -18
W: 350
H: 250
Frame: XPerl_CheckAnchor
FrameLevel: 1
Anchor: CENTER
X: -15
Y: -7
W: 500
H: 240
Frame: XPerl_AdminFrameAnchor
FrameLevel: 1
Anchor: CENTER
X: -15
Y: -7
W: 140
H: 150
Frame: XPerl_Player
FrameLevel: 1
Anchor: BOTTOM
X: -120
Y: 218
W: 220
H: 72
Frame: XPerl_Party_Anchor
FrameLevel: 1
Anchor: LEFT
X: 312
Y: 193
W: 100
H: 60
Frame: AllTheThings-Window-Prime
FrameLevel: 1
Anchor: CENTER
X: 0
Y: 0
W: 300
H: 300
Frame: AllTheThings-Window-Unsorted
FrameLevel: 1
Anchor: CENTER
X: 0
Y: 0
W: 300
H: 300
Frame: AllTheThings-Window-RaidAssistant
FrameLevel: 1
Anchor: CENTER
X: 0
Y: 0
W: 300
H: 300
Frame: XPerl_Target
FrameLevel: 1
Anchor: BOTTOM
X: 153
Y: 228
W: 220
H: 62
Frame: XPerl_Focus
FrameLevel: 1
Anchor: RIGHT
X: -254
Y: -236
W: 220
H: 62
Frame: XPerl_TargetTarget
FrameLevel: 1
Anchor: BOTTOM
X: 126
Y: 187
W: 160
H: 60
Frame: XPerl_Player_Pet
FrameLevel: 1
Anchor: BOTTOMLEFT
X: 446
Y: 251
W: 140
H: 50
Frame: XPerl_PetTarget
FrameLevel: 1
Anchor: BOTTOM
X: -335
Y: 245
W: 160
H: 60
Frame: DBMMinimapButton
FrameLevel: 8
Anchor: TOPRIGHT
X: -7
Y: -81
W: 32
H: 32
Frame: AllTheThings-Window-CurrentInstance
FrameLevel: 1
Anchor: CENTER
X: 0
Y: 0
W: 300
H: 300
