Version: 1
Frame: AllTheThings-Window-CurrentInstance
FrameLevel: 1
Anchor: TOPLEFT
X: 0
Y: -7
W: 71
H: 52
Frame: XPerl_Raid_Title12
FrameLevel: 1
Anchor: CENTER
X: -185
Y: -218
W: 80
H: 10
Frame: XPerl_Raid_Title11
FrameLevel: 1
Anchor: CENTER
X: -185
Y: -218
W: 80
H: 10
Frame: XPerl_Raid_Title10
FrameLevel: 1
Anchor: CENTER
X: -185
Y: -218
W: 80
H: 10
Frame: XPerl_Raid_Title9
FrameLevel: 1
Anchor: CENTER
X: -185
Y: -218
W: 80
H: 10
Frame: XPerl_Raid_Title8
FrameLevel: 1
Anchor: CENTER
X: -185
Y: -218
W: 80
H: 10
Frame: XPerl_Raid_Title7
FrameLevel: 1
Anchor: CENTER
X: -185
Y: -218
W: 80
H: 10
Frame: XPerl_Raid_Title6
FrameLevel: 1
Anchor: CENTER
X: -185
Y: -189
W: 80
H: 10
Frame: XPerl_Raid_Title5
FrameLevel: 1
Anchor: CENTER
X: -185
Y: -218
W: 80
H: 10
Frame: XPerl_Raid_Title4
FrameLevel: 1
Anchor: CENTER
X: -185
Y: -218
W: 80
H: 10
Frame: XPerl_Raid_Title3
FrameLevel: 1
Anchor: CENTER
X: -185
Y: -218
W: 80
H: 10
Frame: XPerl_Raid_Title2
FrameLevel: 1
Anchor: CENTER
X: -185
Y: -218
W: 80
H: 10
Frame: XPerl_Raid_Title1
FrameLevel: 1
Anchor: CENTER
X: -185
Y: -218
W: 80
H: 10
Frame: XPerl_Player
FrameLevel: 1
Anchor: BOTTOM
X: -136
Y: 188
W: 220
H: 62
Frame: XPerl_Party_Anchor
FrameLevel: 1
Anchor: CENTER
X: -359
Y: 118
W: 100
H: 60
Frame: AllTheThings-Window-Prime
FrameLevel: 1
Anchor: CENTER
X: 0
Y: 0
W: 300
H: 300
Frame: AllTheThings-Window-Unsorted
FrameLevel: 1
Anchor: CENTER
X: 0
Y: 0
W: 300
H: 300
Frame: AllTheThings-Window-RaidAssistant
FrameLevel: 1
Anchor: CENTER
X: 0
Y: 0
W: 300
H: 300
Frame: PLH_LootedItemsFrame
FrameLevel: 1
Anchor: RIGHT
X: -196
Y: -47
W: 332
H: 222
Frame: XPerl_Focus
FrameLevel: 1
Anchor: RIGHT
X: -228
Y: -224
W: 220
H: 62
Frame: XPerl_TargetTarget
FrameLevel: 1
Anchor: CENTER
X: 375
Y: -257
W: 160
H: 60
Frame: XPerl_Target
FrameLevel: 1
Anchor: BOTTOM
X: 132
Y: 178
W: 220
H: 62
