## Interface: 11302

## Title: BiS Tracker
## Notes: Shows BiS items for every class, and where to get them.
## Author: Zentarg - Updated by Braatak_twitch
## Version: 2.4
## SavedVariablesPerCharacter: BiS_Settings

Templates.xml
data\BiSData.lua
core.lua