## Interface: 90005
## Version: 1.24
## Title: NameplateSCT
## Author: mpstark, Justwait
## SavedVariables: NameplateSCTDB
## Notes: Nameplate-based scrolling combat text.
## OptionalDeps: Ace3, LibEasing

## X-Curse-Project-ID: 269544

embeds.xml
Locales\locale.xml
NameplateSCT.lua
