## Interface: 80200
## Title: Lib: GetFrame
## Notes: Get unit frame for a unit
## Author: Buds
## X-Category: Library
## X-License: BSD
## Version: 1.4.1
## DefaultState: Enabled
## LoadOnDemand: 0

LibStub\LibStub.lua

LibGetFrame-1.0.xml
