## Interface: 90005
## Title: WeakAuras Model Paths
## Author: The WeakAuras Team
## Version: 3.2.3
## Notes: Model paths for WeakAuras
## Notes-esES: Las rutas de archivos de modelos en 3D para WeakAuras
## Notes-deDE: 3D-Model Pfade für WeakAuras
## Notes-ruRU: Ссылки на файлы моделей WeakAuras
## Notes-zhTW: WeakAuras的模組路徑
## X-Category: Interface Enhancements
## Globe-Main: WeakAuras
## DefaultState: Enabled
## LoadOnDemand: 1
## Dependencies: WeakAuras, WeakAurasOptions

ModelPaths.lua
