## Interface: 90005
## Title: WeakAuras Templates
## Author: The WeakAuras Team
## Version: 3.2.3
## Notes: Templates for WeakAuras
## X-Category: Interface Enhancements
## Globe-Main: WeakAuras
## DefaultState: Enabled
## LoadOnDemand: 1
## Dependencies: WeakAuras, WeakAurasOptions

locales.xml

TriggerTemplates.lua
TriggerTemplatesData.lua

AceGUI-Widgets\AceGUIContainer-WeakAurasTemplateGroup.lua
